particle_system explosion/alpha
{
	quota	200
	material	explosion_alpha
	particle_width	1.4
	particle_height	1.4
	cull_each	true
	renderer	billboard
	billboard_type	point

	emitter Ellipsoid
	{
		angle	180
		colour	1 0.9 0.9 1
		colour_range_start	1 0.9 0.9 1
		colour_range_end	1 0.9 0.9 1
		direction	1 0 0
		emission_rate	500
		position	0 0 0
		velocity	1.8
		velocity_min	1.8
		velocity_max	1.8
		time_to_live	6
		time_to_live_min	6
		time_to_live_max	6
		duration	2.5
		duration_min	2.5
		duration_max	2.5
		repeat_delay	2
		repeat_delay_min	2
		repeat_delay_max	2
		width	1.2
		height	1.2
		depth	1.2
	}

	affector ColourFader
	{
		red	-0.4
		green	-0.48
		blue	-0.821
		alpha	-0.7871
	}
}

particle_system explosion/beta
{
	quota	10
	material	explosion_beta
	particle_width	0.6
	particle_height	0.6
	cull_each	true
	renderer	billboard
	billboard_type	point

	emitter Ellipsoid
	{
		angle	180
		colour	0.7 0.7 1 1
		colour_range_start	0.7 0.7 1 1
		colour_range_end	0.9 0.9 1 1
		direction	1 0 0
		emission_rate	500
		position	0 0 0
		velocity	1
		velocity_min	1
		velocity_max	1
		time_to_live	2
		time_to_live_min	2
		time_to_live_max	2
		duration	0.3
		duration_min	0.3
		duration_max	0.3
		repeat_delay	4
		repeat_delay_min	4
		repeat_delay_max	4
		width	0.1
		height	0.1
		depth	0.1
	}

	affector ColourFader
	{
		red	-0.4
		green	-0.4
		blue	-0.16
		alpha	-1
	}
}

particle_system explosion/gamma
{
	quota	20
	material	explosion_beta
	particle_width	0.9
	particle_height	0.9
	cull_each	true
	renderer	billboard
	billboard_type	point

	emitter Ellipsoid
	{
		angle	180
		colour	0.7 0.7 1 1
		colour_range_start	0.7 1 0.7 1
		colour_range_end	0.9 1 0.9 1
		direction	1 0 0
		emission_rate	500
		position	0 0 0
		velocity	1
		velocity_min	1
		velocity_max	1
		time_to_live	2
		time_to_live_min	2
		time_to_live_max	2
		duration	0.3
		duration_min	0.3
		duration_max	0.3
		repeat_delay	4
		repeat_delay_min	4
		repeat_delay_max	4
		width	0.1
		height	0.1
		depth	0.1
	}

	affector ColourFader
	{
		red	-0.4
		green	-0.1
		blue	-0.4
		alpha	-1
	}
}

particle_system explosion/missile
{
	quota	20
	material	explosion_alpha
	particle_width	0.5
	particle_height	0.5
	cull_each	true
	renderer	billboard
	billboard_type	point

	emitter Ellipsoid
	{
		angle	180
		colour	0.6 0.3 0.3 1
		colour_range_start	0.6 0.1 0.1 0.75
		colour_range_end	0.6 0.4 0.4 1
		direction	1 0 0
		emission_rate	500
		position	0 0 0
		velocity	1
		velocity_min	0.4
		velocity_max	0.4
		time_to_live	0.8
		time_to_live_min	0.8
		time_to_live_max	0.8
		duration	0.3
		duration_min	0.3
		duration_max	0.3
		repeat_delay	4
		repeat_delay_min	4
		repeat_delay_max	4
		width	0.1
		height	0.1
		depth	0.1
	}

	affector ColourFader
	{
		red		-0.2
		green	-0.48
		blue	-0.821
		alpha	-0.7871
	}
}