
particle_system spacedust/alpha
{
	quota	2500
	material	space_dust
	particle_width	1
	particle_height	1
	cull_each	true
	renderer	billboard
	billboard_type	point

	emitter Ellipsoid
	{
		angle	0
		colour	1 1 1 1
		colour_range_start	1 1 1 1
		colour_range_end	1 1 1 1
		direction	0 0 1
		emission_rate	60
		position	0.590229 14.6031 -13.8853
		velocity	0
		velocity_min	0
		velocity_max	0
		time_to_live	100
		time_to_live_min	100
		time_to_live_max	100
		duration	0
		duration_min	0
		duration_max	0
		repeat_delay	0
		repeat_delay_min	0
		repeat_delay_max	0
		width	250
		height	250
		depth	250
	}

	affector ColourFader
	{
		red	-0.2967
		green	-0.2768
		blue	-0.7465
		alpha	5.15e-005
	}
}
