material asteroid_texture/SOLID/TEX/asteroid1.png
{
	technique
	{
		pass
		{
			diffuse 0.745098 0.635294 0.364706
			specular 0.000000 0.000000 0.000000 0.250000
			texture_unit
			{
				texture asteroid1.png
			}
		}
	}
}
