material Material.001
{
	receive_shadows on
	technique
	{
		pass
		{
			ambient 0.133334 0.133334 0.133334 1.000000
			diffuse 0.213334 0.213334 0.213334 1.000000
			specular 0.500000 0.500000 0.500000 1.000000 12.500000
			emissive 0.000000 0.000000 0.000000 1.000000
		}
	}
}
material Material.002
{
	receive_shadows on
	technique
	{
		pass
		{
			ambient 0.150981 0.150981 0.150981 1.000000
			diffuse 0.241569 0.241569 0.241569 1.000000
			specular 0.500000 0.500000 0.500000 1.000000 12.500000
			emissive 0.000000 0.000000 0.000000 1.000000
		}
	}
}
material Material.005
{
	receive_shadows on
	technique
	{
		pass
		{
			ambient 0.078432 0.078432 0.078432 1.000000
			diffuse 0.125490 0.125490 0.125490 1.000000
			specular 0.500000 0.500000 0.500000 1.000000 12.500000
			emissive 0.000000 0.000000 0.000000 1.000000
		}
	}
}
material Material.004
{
	receive_shadows on
	technique
	{
		pass
		{
			ambient 0.135294 0.135294 0.135294 1.000000
			diffuse 0.216470 0.216470 0.216470 1.000000
			specular 0.500000 0.500000 0.500000 1.000000 12.500000
			emissive 0.000000 0.000000 0.000000 1.000000
		}
	}
}
material Material.007
{
	receive_shadows on
	technique
	{
		pass
		{
			ambient 0.500000 0.500000 0.500000 1.000000
			diffuse 0.800000 0.800000 0.800000 1.000000
			specular 0.500000 0.500000 0.500000 1.000000 12.500000
			emissive 0.000000 0.000000 0.000000 1.000000
		}
	}
}
material Material.006
{
	receive_shadows on
	technique
	{
		pass
		{
			ambient 0.500000 0.500000 0.500000 1.000000
			diffuse 0.800000 0.800000 0.800000 1.000000
			specular 0.500000 0.500000 0.500000 1.000000 12.500000
			emissive 0.000000 0.000000 0.000000 1.000000
		}
	}
}
material Material.008
{
	receive_shadows on
	technique
	{
		pass
		{
			ambient 0.492157 0.329412 0.107843 1.000000
			diffuse 0.787451 0.527059 0.172549 1.000000
			specular 0.500000 0.500000 0.500000 1.000000 12.500000
			emissive 0.000000 0.000000 0.000000 1.000000
		}
	}
}
material Material
{
	receive_shadows on
	technique
	{
		pass
		{
			ambient 0.117647 0.117647 0.500000 1.000000
			diffuse 0.188235 0.188235 0.800000 1.000000
			specular 0.500000 0.500000 0.500000 1.000000 12.500000
			emissive 0.000000 0.000000 0.000000 1.000000
		}
	}
}
